<?xml version="1.0" encoding="utf-8"?>
<!-- Generator: Adobe Illustrator 21.1.0, SVG Export Plug-In . SVG Version: 6.00 Build 0)  -->
<svg version="1.1" id="Capa_1" xmlns="http://www.w3.org/2000/svg" xmlns:xlink="http://www.w3.org/1999/xlink" x="0px" y="0px"
	 viewBox="0 0 55.3 10" style="enable-background:new 0 0 55.3 10;" xml:space="preserve">
<style type="text/css">
	.st0{fill:#898989;;}
</style>
<g>
	<path id="XMLID_64_" class="st0" d="M7.2,0.3L7.2,0.3L7.2,0.3L7.2,0.3C7.2,0.3,7.2,0.3,7.2,0.3c-0.1,0-1.6,0-2.1,0
		C5,0.3,4.9,0.4,4.8,0.4C4.7,0.6,2,3.4,0.6,4.8c-0.1,0.1-0.1,0.2,0,0.3c0,0,0.9,1.1,1.9,2.2C2.9,8,3.4,8.5,3.7,8.9
		c0.2,0.2,0.3,0.4,0.4,0.5c0.2,0.3,0.2,0.3,0.4,0.3c0.5,0,1.1,0,1.6,0l0.6,0c0.1,0,0.2-0.1,0.2-0.1c0-0.1,0-0.2,0-0.3L3.3,5l4.1-4.3
		c0,0,0.1-0.1,0.1-0.2C7.5,0.4,7.4,0.3,7.2,0.3z"/>
	<path id="XMLID_63_" class="st0" d="M54.7,4.9c0,0-0.9-1.1-1.9-2.2c-0.5-0.6-0.9-1.1-1.3-1.5c-0.2-0.2-0.3-0.4-0.4-0.5
		c-0.2-0.3-0.2-0.3-0.4-0.3c0,0,0,0,0,0c-0.5,0-1,0-1.6,0l-0.6,0c-0.1,0-0.2,0.1-0.2,0.1c0,0.1,0,0.2,0,0.3L52,5l-4.1,4.3
		c-0.1,0.1-0.1,0.2-0.1,0.3c0,0.1,0.1,0.2,0.2,0.2c0,0,0,0,0,0c0,0,1.6,0,2,0c0.2,0,0.3-0.1,0.4-0.2c0.1-0.1,2.8-2.9,4.2-4.4
		C54.7,5.1,54.7,5,54.7,4.9z"/>
	<path id="XMLID_62_" class="st0" d="M19.1,9.6L23,0.6c0,0,0-0.1,0-0.1c0-0.1-0.1-0.3-0.2-0.3l0,0c0,0,0,0,0,0l0,0h0l0,0l-2.6,0
		c-0.1,0-0.2,0.1-0.2,0.2l-1.8,4.1l-1.4-4.1c0-0.1-0.1-0.2-0.2-0.2c0,0,0,0,0,0l-1.4,0c-0.1,0-0.2,0.1-0.2,0.2l-1.8,4.1l-1.4-4.1
		c0-0.1-0.1-0.2-0.2-0.2c0,0,0,0,0,0L9,0.3c-0.1,0-0.2,0-0.2,0.1c0,0.1-0.1,0.2,0,0.2l3,9c0,0.1,0.1,0.2,0.2,0.2c0,0,0,0,0,0l1.9,0
		c0.1,0,0.2-0.1,0.2-0.2l1.5-3.4l1.1,3.4c0,0.1,0.1,0.2,0.2,0.2c0,0,0,0,0,0l1.9,0C19,9.7,19.1,9.7,19.1,9.6z"/>
	<path id="XMLID_61_" class="st0" d="M32.6,0.2L32.6,0.2C32.6,0.2,32.6,0.2,32.6,0.2l-2.5,0c-0.1,0-0.2,0.1-0.3,0.2l-0.2,3.2l-2.9,0
		l0.2-3.2c0-0.1,0-0.1-0.1-0.2c0,0-0.1-0.1-0.2-0.1c0,0,0,0,0,0l-2.5,0c-0.1,0-0.2,0.1-0.3,0.2l-0.4,9c0,0.1,0,0.1,0.1,0.2
		c0,0,0.1,0.1,0.2,0.1c0,0,0,0,0,0l2.5,0c0.1,0,0.2-0.1,0.3-0.2l0.2-3.2l2.9,0l-0.2,3.2c0,0.1,0,0.1,0.1,0.2c0,0,0.1,0.1,0.2,0.1
		c0,0,0,0,0,0l2.5,0c0.1,0,0.2-0.1,0.3-0.2l0.4-9c0,0,0,0,0,0C32.8,0.4,32.7,0.2,32.6,0.2z"/>
	<path id="XMLID_60_" class="st0" d="M36.6,9.5l0.4-9c0,0,0,0,0,0c0-0.1-0.1-0.3-0.2-0.3l0,0c0,0,0,0,0,0l-2.4,0
		c-0.1,0-0.2,0.1-0.3,0.2l-0.4,9c0,0.1,0,0.1,0.1,0.2c0,0,0.1,0.1,0.2,0.1c0,0,0,0,0,0l2.4,0C36.5,9.7,36.6,9.6,36.6,9.5z"/>
	<path id="XMLID_18_" class="st0" d="M46.1,9.5l0.1-2.2c0-0.1,0-0.1-0.1-0.2C46.1,7.1,46,7,46,7c0,0,0,0,0,0l-3.2,0L46.4,1
		c0,0,0-0.1,0-0.1l0-0.3c0,0,0,0,0,0c0-0.1-0.1-0.3-0.2-0.3l0,0c0,0,0,0,0,0l-7.7,0c-0.1,0-0.2,0.1-0.3,0.2l-0.1,2.2
		c0,0.1,0,0.1,0.1,0.2c0,0,0.1,0.1,0.2,0.1c0,0,0,0,0,0l3.4,0L38.2,9c0,0,0,0.1,0,0.1l0,0.3c0,0.1,0,0.1,0.1,0.2
		c0,0,0.1,0.1,0.2,0.1c0,0,0,0,0,0l7.5,0C46,9.7,46.1,9.6,46.1,9.5z"/>
</g>
</svg>
